02_reorganize_data
…
Data cleaning

By looking at the resulting dip_raw data frame, we can see that most columns are character columns when obviously the edition column correspond to a date column. Also, the position column is not necessarily a numeric column but actually a factor column that will help identify which type of entries are first, which seconde, etc.

dip_raw_fix01 <- dip_raw %>% 
  mutate(edition = lubridate::ymd(edition),
         position_fct = as_factor(position),
         month = lubridate::month(edition, label = TRUE)) %>% 
  rename(position_dbl = position) %>% 
  select(edition, month, position_dbl, position_fct, everything())

dip_raw_fix01
#> # A tibble: 985 x 8
#>    edition    month position_dbl position_fct headline   text    links  hattips 
#>    <date>     <ord>        <dbl> <fct>        <chr>      <chr>   <chr>  <chr>   
#>  1 2015-10-21 oct              1 1            Every pla~ "Somet~ "http~ https:/~
#>  2 2015-10-21 oct              2 2            “There’s ~ "The H~ "http~ <NA>    
#>  3 2015-10-21 oct              3 3            What poli~ "The P~ "http~ <NA>    
#>  4 2015-10-21 oct              4 4            How often~ "The W~ "http~ <NA>    
#>  5 2015-10-21 oct              5 5            Four year~ "WNYC,~ "http~ https:/~
#>  6 2015-10-28 oct              1 1            Data-sham~ "If yo~ "http~ https:/~
#>  7 2015-10-28 oct              2 2            The demog~ "This ~ "http~ <NA>    
#>  8 2015-10-28 oct              3 3            Where do ~ "Most ~ "http~ https:/~
#>  9 2015-10-28 oct              4 4            Finally, ~ "Prior~ "http~ https:/~
#> 10 2015-10-28 oct              5 5            Porn.      "Sexua~ "http~ <NA>    
#> # ... with 975 more rows
…
Not much info of value but it confirms that the pattern is the send 5 dataset recommendations in each newsletter ordered from one to 5. Doing a quick check the newsletter is sent every wednesday.

The issue with the links column

As we can see the data is not yet tidy enough. It has a row per each data set recommendation, however, for each data set recommendation in the text column there is most of time more than one link recommended. The idea would be to have each link in each corresponding row per dataset recommendation.

We need to find a way to expand that row so that we can each link separated. Grouping by text column will help in analysis then. Using separate_rows() from tidyr can help us separate the rows by the carriage return.

We will create one group for links analysis.

dip_links <- dip_raw_fix01 %>% 
  tidyr::separate_rows(links, sep = "\n", convert = FALSE) 

dip_links
#> # A tibble: 3,530 x 8
#>    edition    month position_dbl position_fct headline   text    links  hattips 
#>    <date>     <ord>        <dbl> <fct>        <chr>      <chr>   <chr>  <chr>   
#>  1 2015-10-21 oct              1 1            Every pla~ "Somet~ http:~ https:/~
#>  2 2015-10-21 oct              1 1            Every pla~ "Somet~ http:~ https:/~
#>  3 2015-10-21 oct              1 1            Every pla~ "Somet~ https~ https:/~
#>  4 2015-10-21 oct              2 2            “There’s ~ "The H~ http:~ <NA>    
#>  5 2015-10-21 oct              2 2            “There’s ~ "The H~ https~ <NA>    
#>  6 2015-10-21 oct              3 3            What poli~ "The P~ https~ <NA>    
#>  7 2015-10-21 oct              3 3            What poli~ "The P~ http:~ <NA>    
#>  8 2015-10-21 oct              4 4            How often~ "The W~ https~ <NA>    
#>  9 2015-10-21 oct              5 5            Four year~ "WNYC,~ https~ https:/~
#> 10 2015-10-21 oct              5 5            Four year~ "WNYC,~ http:~ https:/~
#> # ... with 3,520 more rows

The issue with the text column

And one set for text analysis. One thing about the text column is many of them end up with a hat tip. A hat tip is a mention to the person that pointed the author to the data set in turn. It will be interesting to have a column where the hattips are indicated.

dip_texts <- dip_raw_fix01 %>% 
  tidyr::separate(text,  into = c("text", "hattip_name"), sep = "(\\[h/t)", remove = FALSE) %>% 
  mutate(hattip_name = str_remove_all(hattip_name, "]"))

dip_texts
#> # A tibble: 985 x 9
#>    edition    month position_dbl position_fct headline links text  hattip_name
#>    <date>     <ord>        <dbl> <fct>        <chr>    <chr> <chr> <chr>      
#>  1 2015-10-21 oct              1 1            Every p~ "htt~ "Som~ " @emilymb~
#>  2 2015-10-21 oct              2 2            “There’~ "htt~ "The~  <NA>      
#>  3 2015-10-21 oct              3 3            What po~ "htt~ "The~  <NA>      
#>  4 2015-10-21 oct              4 4            How oft~ "htt~ "The~  <NA>      
#>  5 2015-10-21 oct              5 5            Four ye~ "htt~ "WNY~ " @veltman"
#>  6 2015-10-28 oct              1 1            Data-sh~ "htt~ "If ~ " Shale Cr~
#>  7 2015-10-28 oct              2 2            The dem~ "htt~ "Thi~  <NA>      
#>  8 2015-10-28 oct              3 3            Where d~ "htt~ "Mos~ " Steven R~
#>  9 2015-10-28 oct              4 4            Finally~ "htt~ "Pri~ " Noah Vel~
#> 10 2015-10-28 oct              5 5            Porn.    "htt~ "Sex~  <NA>      
#> # ... with 975 more rows, and 1 more variable: hattips <chr>
…
